<svg width="11" height="9" viewBox="0 0 11 9" fill="none" xmlns="http://www.w3.org/2000/svg">
<path d="M0.126923 4.675C0.0423077 4.59 0 4.4625 0 4.3775C0 4.2925 0.0423077 4.165 0.126923 4.08L0.719231 3.485C0.888462 3.315 1.14231 3.315 1.31154 3.485L1.35385 3.5275L3.68077 6.035C3.76538 6.12 3.89231 6.12 3.97692 6.035L9.64615 0.1275H9.68846C9.85769 -0.0425 10.1115 -0.0425 10.2808 0.1275L10.8731 0.7225C11.0423 0.8925 11.0423 1.1475 10.8731 1.3175L4.10385 8.3725C4.01923 8.4575 3.93462 8.5 3.80769 8.5C3.68077 8.5 3.59615 8.4575 3.51154 8.3725L0.211538 4.8025L0.126923 4.675Z" fill="white"/>
</svg>
